<?xml version="1.0" encoding="UTF-8" standalone="no"?>
<svg
   xmlns:dc="http://purl.org/dc/elements/1.1/"
   xmlns:cc="http://creativecommons.org/ns#"
   xmlns:rdf="http://www.w3.org/1999/02/22-rdf-syntax-ns#"
   xmlns:svg="http://www.w3.org/2000/svg"
   xmlns="http://www.w3.org/2000/svg"
   xmlns:sodipodi="http://sodipodi.sourceforge.net/DTD/sodipodi-0.dtd"
   xmlns:inkscape="http://www.inkscape.org/namespaces/inkscape"
   width="250px"
   height="250px"
   viewBox="0 0 900 900"
   version="1.1"
   inkscape:version="1.0.2 (e86c870879, 2021-01-15)"
   sodipodi:docname="logo_circle.svg"
   inkscape:export-filename="/var/home/adrian/Pictures/carbonOS logo/logo_filledbg.png"
   inkscape:export-xdpi="96"
   inkscape:export-ydpi="96"
   id="svg21">
  <sodipodi:namedview
     pagecolor="#000000"
     bordercolor="#666666"
     borderopacity="1"
     objecttolerance="10"
     gridtolerance="10"
     guidetolerance="10"
     inkscape:pageopacity="0"
     inkscape:pageshadow="2"
     inkscape:window-width="1920"
     inkscape:window-height="1011"
     id="namedview12"
     showgrid="false"
     inkscape:zoom="0.70710678"
     inkscape:cx="289.198"
     inkscape:cy="493.53346"
     inkscape:window-x="0"
     inkscape:window-y="0"
     inkscape:window-maximized="1"
     inkscape:pagecheckerboard="true"
     inkscape:snap-bbox="true"
     inkscape:snap-bbox-midpoints="true"
     inkscape:document-rotation="0"
     showborder="true"
     borderlayer="false"
     inkscape:showpageshadow="false"
     inkscape:current-layer="layer1" />
  <title
     id="title2">carbonOS Logo</title>
  <defs
     id="defs4" />
  <g
     inkscape:groupmode="layer"
     id="layer1"
     inkscape:label="BG">
    <circle
       style="fill:#353535;stroke-width:5"
       id="path864"
       cx="450"
       cy="450"
       r="416.65439" />
  </g>
  <g
     inkscape:groupmode="layer"
     id="layer5"
     inkscape:label="Outline"
     style="display:inline;mix-blend-mode:normal">
    <path
       d="m 491.76066,130.41199 c -25.84159,-14.91966 -57.67974,-14.91966 -83.52132,0 L 194.10899,254.0402 c -25.8416,14.91964 -41.76066,42.49229 -41.76066,72.33159 v 247.25643 c 0,29.83929 15.91906,57.41194 41.76066,72.33159 l 214.13035,123.62821 c 25.84158,14.91964 57.67973,14.91964 83.52132,0 L 705.89102,645.95981 c 25.84157,-14.91965 41.76065,-42.4923 41.76065,-72.33159 V 326.37179 c 0,-29.8393 -15.91908,-57.41195 -41.76065,-72.33159 z"
       id="Polygon-7"
       stroke="#fafafa"
       stroke-width="55.6809"
       style="fill:#000000;fill-opacity:1;stroke:#ffffff;stroke-opacity:1" />
  </g>
  <g
     id="carbonOS-Outline"
     stroke="none"
     stroke-width="1"
     fill="none"
     fill-rule="evenodd" />
  <g
     inkscape:groupmode="layer"
     id="layer6"
     inkscape:label="Inside"
     style="display:inline;mix-blend-mode:normal">
    <g
       id="g1613"
       transform="translate(-1.2866,0.90039223)" />
    <g
       inkscape:groupmode="layer"
       id="layer7"
       inkscape:label="0"
       style="opacity:1;mix-blend-mode:normal">
      <path
         d="m 482.89729,415.96655 c -20.69745,-11.72214 -46.19768,-11.72214 -66.895,0 l -171.50413,97.13329 c -20.69734,11.72221 -33.4475,27.24911 -33.4475,46.11442 0,18.86531 12.75016,34.39227 33.4475,46.11447 L 416.00229,702.462 c 20.6973,11.72221 46.19755,11.72221 66.895,0 l 171.50396,-97.13327 c 20.69747,-11.7222 33.44752,-27.24916 33.44752,-46.11447 0,-18.86533 -12.75004,-34.39221 -33.44752,-46.11442 z"
         id="Polygon-73-1-2"
         stroke="#fafafa"
         stroke-width="1.04233"
         style="display:inline;mix-blend-mode:normal;fill:#666666;fill-opacity:1;fill-rule:evenodd;stroke:#000000;stroke-width:17.5404;stroke-miterlimit:4;stroke-dasharray:none;stroke-opacity:1"
         sodipodi:nodetypes="cscssccsscc" />
    </g>
    <g
       inkscape:groupmode="layer"
       id="layer8"
       inkscape:label="1"
       style="opacity:1;mix-blend-mode:normal">
      <path
         d="m 483.99785,343.15701 c -20.69745,-11.72218 -46.19771,-11.72218 -66.89503,0 l -171.50409,97.13326 c -20.69735,11.72225 -33.44751,27.24914 -33.44751,46.11444 0,18.86532 12.75016,34.39227 33.44751,46.11445 l 171.50409,97.13326 c 20.69732,11.72228 46.19758,11.72228 66.89503,0 l 171.50396,-97.13326 c 20.69748,-11.72218 33.44753,-27.24913 33.44753,-46.11445 0,-18.8653 -12.75005,-34.39219 -33.44753,-46.11444 z"
         id="Polygon-73-1-9"
         stroke="#fafafa"
         stroke-width="1.04233"
         style="display:inline;mix-blend-mode:normal;fill:#999999;fill-opacity:1;fill-rule:evenodd;stroke:#000000;stroke-width:17.5404;stroke-miterlimit:4;stroke-dasharray:none;stroke-opacity:1"
         sodipodi:nodetypes="cscssccsscc" />
    </g>
    <g
       inkscape:groupmode="layer"
       id="layer9"
       inkscape:label="2">
      <path
         d="m 482.89728,270.34752 c -20.69743,-11.72216 -46.19769,-11.72216 -66.89503,0 L 244.49814,367.4808 c -20.69733,11.72221 -33.44748,27.24913 -33.44748,46.11442 0,18.86531 12.75015,34.39228 33.44748,46.11448 l 171.50411,97.13327 c 20.69732,11.72223 46.1976,11.72223 66.89503,0 L 654.40125,459.7097 c 20.69743,-11.7222 33.44752,-27.24917 33.44752,-46.11448 0,-18.86531 -12.75004,-34.39221 -33.44752,-46.11442 z"
         id="Polygon-73-1-3"
         stroke="#fafafa"
         stroke-width="1.04233"
         style="display:inline;mix-blend-mode:normal;fill:#cccccc;fill-opacity:1;fill-rule:evenodd;stroke:#000000;stroke-width:17.5404;stroke-miterlimit:4;stroke-dasharray:none;stroke-opacity:1"
         sodipodi:nodetypes="cscssccsscc" />
    </g>
    <g
       inkscape:groupmode="layer"
       id="layer10"
       inkscape:label="3">
      <path
         d="m 482.89733,197.53795 c -20.69743,-11.72213 -46.1977,-11.72213 -66.89503,0 l -171.50411,97.13328 c -20.69736,11.72222 -33.44751,27.24915 -33.44751,46.11444 0,18.8653 12.75016,34.39226 33.44751,46.11446 l 171.50411,97.13328 c 20.69731,11.72223 46.1976,11.72223 66.89503,0 l 171.50392,-97.13328 c 20.69745,-11.7222 33.44751,-27.24916 33.44751,-46.11446 0,-18.86532 -12.75006,-34.39222 -33.44751,-46.11444 z"
         id="Polygon-73-1"
         stroke="#fafafa"
         stroke-width="1.04233"
         style="display:inline;mix-blend-mode:normal;fill:#ffffff;fill-opacity:1;fill-rule:evenodd;stroke:#000000;stroke-width:17.5404;stroke-miterlimit:4;stroke-dasharray:none;stroke-opacity:1"
         sodipodi:nodetypes="cscssccsscc" />
    </g>
  </g>
  <metadata
     id="metadata850">
    <rdf:RDF>
      <cc:Work
         rdf:about="">
        <dc:title>carbonOS Logo</dc:title>
        <dc:format>image/svg+xml</dc:format>
        <dc:type
           rdf:resource="http://purl.org/dc/dcmitype/StillImage" />
      </cc:Work>
    </rdf:RDF>
  </metadata>
</svg>
